<<<<<<< HEAD
Jun 22, 2017 9:31:47 PM webserver.WebServer run
INFO: Initializing HTTP Server
Jun 22, 2017 9:31:47 PM webserver.WebServer run
INFO: Creating contexts
Jun 22, 2017 9:31:47 PM webserver.WebServer run
INFO: Starting HTTP server
Jun 22, 2017 9:34:14 PM RegisterHandler handle
FINER: ENTRY
Jun 22, 2017 9:34:16 PM DAOAuthToken addAuthToken
FINER: ENTRY
Jun 22, 2017 9:34:16 PM DAOAuthToken addAuthToken
FINER: RETURN
Jun 22, 2017 9:34:16 PM DAOPerson addPerson
FINER: ENTRY
Jun 22, 2017 9:34:16 PM DAOPerson addPerson
FINER: RETURN
Jun 22, 2017 9:34:16 PM DAOPerson addPerson
FINER: ENTRY
Jun 22, 2017 9:34:16 PM DAOPerson addPerson
FINER: RETURN
Jun 22, 2017 9:34:16 PM DAOPerson addPerson
FINER: ENTRY
Jun 22, 2017 9:34:16 PM DAOPerson addPerson
FINER: RETURN
Jun 22, 2017 9:34:16 PM DAOPerson addPerson
FINER: ENTRY
Jun 22, 2017 9:34:16 PM DAOPerson addPerson
FINER: RETURN
Jun 22, 2017 9:34:16 PM DAOPerson addPerson
FINER: ENTRY
Jun 22, 2017 9:34:16 PM DAOPerson addPerson
FINER: RETURN
Jun 22, 2017 9:34:16 PM DAOPerson addPerson
FINER: ENTRY
Jun 22, 2017 9:34:16 PM DAOPerson addPerson
FINER: RETURN
Jun 22, 2017 9:34:16 PM DAOPerson addPerson
FINER: ENTRY
Jun 22, 2017 9:34:16 PM DAOPerson addPerson
FINER: RETURN
Jun 22, 2017 9:34:16 PM DAOPerson addPerson
FINER: ENTRY
Jun 22, 2017 9:34:16 PM DAOPerson addPerson
FINER: RETURN
Jun 22, 2017 9:34:16 PM DAOPerson addPerson
FINER: ENTRY
Jun 22, 2017 9:34:16 PM DAOPerson addPerson
FINER: RETURN
Jun 22, 2017 9:34:16 PM DAOPerson addPerson
FINER: ENTRY
Jun 22, 2017 9:34:16 PM DAOPerson addPerson
FINER: RETURN
Jun 22, 2017 9:34:16 PM DAOPerson addPerson
FINER: ENTRY
Jun 22, 2017 9:34:16 PM DAOPerson addPerson
FINER: RETURN
Jun 22, 2017 9:34:16 PM DAOPerson addPerson
FINER: ENTRY
Jun 22, 2017 9:34:16 PM DAOPerson addPerson
FINER: RETURN
Jun 22, 2017 9:34:16 PM DAOPerson addPerson
FINER: ENTRY
Jun 22, 2017 9:34:16 PM DAOPerson addPerson
FINER: RETURN
Jun 22, 2017 9:34:16 PM DAOPerson addPerson
FINER: ENTRY
Jun 22, 2017 9:34:16 PM DAOPerson addPerson
FINER: RETURN
Jun 22, 2017 9:34:16 PM DAOPerson addPerson
FINER: ENTRY
Jun 22, 2017 9:34:16 PM DAOPerson addPerson
FINER: RETURN
Jun 22, 2017 9:34:16 PM DAOPerson addPerson
FINER: ENTRY
Jun 22, 2017 9:34:16 PM DAOPerson addPerson
FINER: RETURN
Jun 22, 2017 9:34:16 PM DAOPerson addPerson
FINER: ENTRY
Jun 22, 2017 9:34:16 PM DAOPerson addPerson
FINER: RETURN
Jun 22, 2017 9:34:16 PM DAOPerson addPerson
FINER: ENTRY
Jun 22, 2017 9:34:16 PM DAOPerson addPerson
FINER: RETURN
Jun 22, 2017 9:34:16 PM DAOPerson addPerson
FINER: ENTRY
Jun 22, 2017 9:34:16 PM DAOPerson addPerson
FINER: RETURN
Jun 22, 2017 9:34:16 PM DAOPerson addPerson
FINER: ENTRY
Jun 22, 2017 9:34:16 PM DAOPerson addPerson
FINER: RETURN
Jun 22, 2017 9:34:16 PM DAOPerson addPerson
FINER: ENTRY
Jun 22, 2017 9:34:16 PM DAOPerson addPerson
FINER: RETURN
Jun 22, 2017 9:34:16 PM DAOPerson addPerson
FINER: ENTRY
Jun 22, 2017 9:34:16 PM DAOPerson addPerson
FINER: RETURN
Jun 22, 2017 9:34:16 PM DAOPerson addPerson
FINER: ENTRY
Jun 22, 2017 9:34:16 PM DAOPerson addPerson
FINER: RETURN
Jun 22, 2017 9:34:16 PM DAOPerson addPerson
FINER: ENTRY
Jun 22, 2017 9:34:16 PM DAOPerson addPerson
FINER: RETURN
Jun 22, 2017 9:34:16 PM DAOPerson addPerson
FINER: ENTRY
Jun 22, 2017 9:34:16 PM DAOPerson addPerson
FINER: RETURN
Jun 22, 2017 9:34:16 PM DAOPerson addPerson
FINER: ENTRY
Jun 22, 2017 9:34:16 PM DAOPerson addPerson
FINER: RETURN
Jun 22, 2017 9:34:16 PM DAOPerson addPerson
FINER: ENTRY
Jun 22, 2017 9:34:16 PM DAOPerson addPerson
FINER: RETURN
Jun 22, 2017 9:34:16 PM DAOPerson addPerson
FINER: ENTRY
Jun 22, 2017 9:34:16 PM DAOPerson addPerson
FINER: RETURN
Jun 22, 2017 9:34:16 PM DAOPerson addPerson
FINER: ENTRY
Jun 22, 2017 9:34:16 PM DAOPerson addPerson
FINER: RETURN
Jun 22, 2017 9:34:16 PM DAOPerson addPerson
FINER: ENTRY
Jun 22, 2017 9:34:16 PM DAOPerson addPerson
FINER: RETURN
Jun 22, 2017 9:34:16 PM DAOPerson addPerson
FINER: ENTRY
Jun 22, 2017 9:34:16 PM DAOPerson addPerson
FINER: RETURN
Jun 22, 2017 9:34:16 PM RegisterHandler handle
FINER: RETURN
Jun 22, 2017 9:34:16 PM PersonHandler handle
FINER: ENTRY
Jun 22, 2017 9:34:16 PM DAOAuthToken getAuthToken
FINER: ENTRY
Jun 22, 2017 9:34:16 PM DAOAuthToken getAuthToken
FINER: RETURN
Jun 22, 2017 9:34:16 PM DAOPerson getPersonsByUserName
FINER: ENTRY
Jun 22, 2017 9:34:16 PM DAOPerson getPersonsByUserName
FINER: RETURN
Jun 22, 2017 9:34:16 PM PersonHandler handle
FINER: RETURN
Jun 22, 2017 9:34:16 PM EventHandler handle
FINER: ENTRY
Jun 22, 2017 9:34:16 PM DAOAuthToken getAuthToken
FINER: ENTRY
Jun 22, 2017 9:34:16 PM DAOAuthToken getAuthToken
FINER: RETURN
Jun 22, 2017 9:34:16 PM DAOEvent getEventsByPersId
FINER: ENTRY
Jun 22, 2017 9:34:16 PM DAOEvent getEventsByPersId
FINER: RETURN
Jun 22, 2017 9:34:16 PM EventHandler handle
FINER: RETURN
Jun 22, 2017 9:35:40 PM LoginHandler handle
FINER: ENTRY
Jun 22, 2017 9:35:40 PM LoginHandler handle
FINER: RETURN
Jun 22, 2017 9:35:50 PM LoginHandler handle
FINER: ENTRY
Jun 22, 2017 9:35:50 PM DAOAuthToken addAuthToken
FINER: ENTRY
Jun 22, 2017 9:35:50 PM DAOAuthToken addAuthToken
FINER: RETURN
Jun 22, 2017 9:35:50 PM LoginHandler handle
FINER: RETURN
Jun 22, 2017 9:35:50 PM PersonHandler handle
FINER: ENTRY
Jun 22, 2017 9:35:50 PM DAOAuthToken getAuthToken
FINER: ENTRY
Jun 22, 2017 9:35:50 PM DAOAuthToken getAuthToken
FINER: RETURN
Jun 22, 2017 9:35:50 PM DAOPerson getPersonsByUserName
FINER: ENTRY
Jun 22, 2017 9:35:50 PM DAOPerson getPersonsByUserName
FINER: RETURN
Jun 22, 2017 9:35:50 PM PersonHandler handle
FINER: RETURN
Jun 22, 2017 9:35:51 PM EventHandler handle
FINER: ENTRY
Jun 22, 2017 9:35:51 PM DAOAuthToken getAuthToken
FINER: ENTRY
Jun 22, 2017 9:35:51 PM DAOAuthToken getAuthToken
FINER: RETURN
Jun 22, 2017 9:35:51 PM DAOEvent getEventsByPersId
FINER: ENTRY
Jun 22, 2017 9:35:51 PM DAOEvent getEventsByPersId
FINER: RETURN
Jun 22, 2017 9:35:51 PM EventHandler handle
FINER: RETURN
Jun 22, 2017 9:36:38 PM LoginHandler handle
FINER: ENTRY
Jun 22, 2017 9:36:38 PM DAOAuthToken addAuthToken
FINER: ENTRY
Jun 22, 2017 9:36:38 PM DAOAuthToken addAuthToken
FINER: RETURN
Jun 22, 2017 9:36:38 PM LoginHandler handle
FINER: RETURN
Jun 22, 2017 9:36:38 PM PersonHandler handle
FINER: ENTRY
Jun 22, 2017 9:36:38 PM DAOAuthToken getAuthToken
FINER: ENTRY
Jun 22, 2017 9:36:38 PM DAOAuthToken getAuthToken
FINER: RETURN
Jun 22, 2017 9:36:38 PM DAOPerson getPersonsByUserName
FINER: ENTRY
Jun 22, 2017 9:36:38 PM DAOPerson getPersonsByUserName
FINER: RETURN
Jun 22, 2017 9:36:38 PM PersonHandler handle
FINER: RETURN
Jun 22, 2017 9:36:38 PM EventHandler handle
FINER: ENTRY
Jun 22, 2017 9:36:38 PM DAOAuthToken getAuthToken
FINER: ENTRY
Jun 22, 2017 9:36:38 PM DAOAuthToken getAuthToken
FINER: RETURN
Jun 22, 2017 9:36:38 PM DAOEvent getEventsByPersId
FINER: ENTRY
Jun 22, 2017 9:36:38 PM DAOEvent getEventsByPersId
FINER: RETURN
Jun 22, 2017 9:36:38 PM EventHandler handle
FINER: RETURN
Jun 22, 2017 9:37:24 PM LoginHandler handle
FINER: ENTRY
Jun 22, 2017 9:37:24 PM DAOAuthToken addAuthToken
FINER: ENTRY
Jun 22, 2017 9:37:24 PM DAOAuthToken addAuthToken
FINER: RETURN
Jun 22, 2017 9:37:24 PM LoginHandler handle
FINER: RETURN
Jun 22, 2017 9:37:24 PM PersonHandler handle
FINER: ENTRY
Jun 22, 2017 9:37:24 PM DAOAuthToken getAuthToken
FINER: ENTRY
Jun 22, 2017 9:37:24 PM DAOAuthToken getAuthToken
FINER: RETURN
Jun 22, 2017 9:37:24 PM DAOPerson getPersonsByUserName
FINER: ENTRY
Jun 22, 2017 9:37:24 PM DAOPerson getPersonsByUserName
FINER: RETURN
Jun 22, 2017 9:37:24 PM PersonHandler handle
FINER: RETURN
Jun 22, 2017 9:37:24 PM EventHandler handle
FINER: ENTRY
Jun 22, 2017 9:37:24 PM DAOAuthToken getAuthToken
FINER: ENTRY
Jun 22, 2017 9:37:24 PM DAOAuthToken getAuthToken
FINER: RETURN
Jun 22, 2017 9:37:24 PM DAOEvent getEventsByPersId
FINER: ENTRY
Jun 22, 2017 9:37:24 PM DAOEvent getEventsByPersId
FINER: RETURN
Jun 22, 2017 9:37:24 PM EventHandler handle
FINER: RETURN
Jun 22, 2017 9:38:14 PM LoginHandler handle
FINER: ENTRY
Jun 22, 2017 9:38:14 PM DAOAuthToken addAuthToken
FINER: ENTRY
Jun 22, 2017 9:38:14 PM DAOAuthToken addAuthToken
FINER: RETURN
Jun 22, 2017 9:38:14 PM LoginHandler handle
FINER: RETURN
Jun 22, 2017 9:38:14 PM PersonHandler handle
FINER: ENTRY
Jun 22, 2017 9:38:14 PM DAOAuthToken getAuthToken
FINER: ENTRY
Jun 22, 2017 9:38:14 PM DAOAuthToken getAuthToken
FINER: RETURN
Jun 22, 2017 9:38:14 PM DAOPerson getPersonsByUserName
FINER: ENTRY
Jun 22, 2017 9:38:14 PM DAOPerson getPersonsByUserName
FINER: RETURN
Jun 22, 2017 9:38:14 PM PersonHandler handle
FINER: RETURN
Jun 22, 2017 9:38:14 PM EventHandler handle
FINER: ENTRY
Jun 22, 2017 9:38:14 PM DAOAuthToken getAuthToken
FINER: ENTRY
Jun 22, 2017 9:38:14 PM DAOAuthToken getAuthToken
FINER: RETURN
Jun 22, 2017 9:38:14 PM DAOEvent getEventsByPersId
FINER: ENTRY
Jun 22, 2017 9:38:14 PM DAOEvent getEventsByPersId
FINER: RETURN
Jun 22, 2017 9:38:14 PM EventHandler handle
FINER: RETURN
Jun 22, 2017 9:41:01 PM LoginHandler handle
FINER: ENTRY
Jun 22, 2017 9:41:01 PM DAOAuthToken addAuthToken
FINER: ENTRY
Jun 22, 2017 9:41:01 PM DAOAuthToken addAuthToken
FINER: RETURN
Jun 22, 2017 9:41:01 PM LoginHandler handle
FINER: RETURN
Jun 22, 2017 9:41:01 PM PersonHandler handle
FINER: ENTRY
Jun 22, 2017 9:41:01 PM DAOAuthToken getAuthToken
FINER: ENTRY
Jun 22, 2017 9:41:01 PM DAOAuthToken getAuthToken
FINER: RETURN
Jun 22, 2017 9:41:01 PM DAOPerson getPersonsByUserName
FINER: ENTRY
Jun 22, 2017 9:41:01 PM DAOPerson getPersonsByUserName
FINER: RETURN
Jun 22, 2017 9:41:01 PM PersonHandler handle
FINER: RETURN
Jun 22, 2017 9:41:02 PM EventHandler handle
FINER: ENTRY
Jun 22, 2017 9:41:02 PM DAOAuthToken getAuthToken
FINER: ENTRY
Jun 22, 2017 9:41:02 PM DAOAuthToken getAuthToken
FINER: RETURN
Jun 22, 2017 9:41:02 PM DAOEvent getEventsByPersId
FINER: ENTRY
Jun 22, 2017 9:41:02 PM DAOEvent getEventsByPersId
FINER: RETURN
Jun 22, 2017 9:41:02 PM EventHandler handle
FINER: RETURN
Jun 22, 2017 9:42:33 PM LoginHandler handle
FINER: ENTRY
Jun 22, 2017 9:42:33 PM DAOAuthToken addAuthToken
FINER: ENTRY
Jun 22, 2017 9:42:33 PM DAOAuthToken addAuthToken
FINER: RETURN
Jun 22, 2017 9:42:33 PM LoginHandler handle
FINER: RETURN
Jun 22, 2017 9:42:33 PM PersonHandler handle
FINER: ENTRY
Jun 22, 2017 9:42:33 PM DAOAuthToken getAuthToken
FINER: ENTRY
Jun 22, 2017 9:42:33 PM DAOAuthToken getAuthToken
FINER: RETURN
Jun 22, 2017 9:42:33 PM DAOPerson getPersonsByUserName
FINER: ENTRY
Jun 22, 2017 9:42:33 PM DAOPerson getPersonsByUserName
FINER: RETURN
Jun 22, 2017 9:42:33 PM PersonHandler handle
FINER: RETURN
Jun 22, 2017 9:42:33 PM EventHandler handle
FINER: ENTRY
Jun 22, 2017 9:42:33 PM DAOAuthToken getAuthToken
FINER: ENTRY
Jun 22, 2017 9:42:33 PM DAOAuthToken getAuthToken
FINER: RETURN
Jun 22, 2017 9:42:33 PM DAOEvent getEventsByPersId
FINER: ENTRY
Jun 22, 2017 9:42:33 PM DAOEvent getEventsByPersId
FINER: RETURN
Jun 22, 2017 9:42:33 PM EventHandler handle
FINER: RETURN
Jun 22, 2017 9:46:32 PM LoginHandler handle
FINER: ENTRY
Jun 22, 2017 9:46:32 PM DAOAuthToken addAuthToken
FINER: ENTRY
Jun 22, 2017 9:46:32 PM DAOAuthToken addAuthToken
FINER: RETURN
Jun 22, 2017 9:46:32 PM LoginHandler handle
FINER: RETURN
Jun 22, 2017 9:46:32 PM PersonHandler handle
FINER: ENTRY
Jun 22, 2017 9:46:32 PM DAOAuthToken getAuthToken
FINER: ENTRY
Jun 22, 2017 9:46:32 PM DAOAuthToken getAuthToken
FINER: RETURN
Jun 22, 2017 9:46:32 PM DAOPerson getPersonsByUserName
FINER: ENTRY
Jun 22, 2017 9:46:32 PM DAOPerson getPersonsByUserName
FINER: RETURN
Jun 22, 2017 9:46:32 PM PersonHandler handle
FINER: RETURN
Jun 22, 2017 9:46:32 PM EventHandler handle
FINER: ENTRY
Jun 22, 2017 9:46:32 PM DAOAuthToken getAuthToken
FINER: ENTRY
Jun 22, 2017 9:46:32 PM DAOAuthToken getAuthToken
FINER: RETURN
Jun 22, 2017 9:46:32 PM DAOEvent getEventsByPersId
FINER: ENTRY
Jun 22, 2017 9:46:32 PM DAOEvent getEventsByPersId
FINER: RETURN
Jun 22, 2017 9:46:32 PM EventHandler handle
=======
Jun 19, 2017 10:13:24 PM webserver.WebServer run
INFO: Initializing HTTP Server
Jun 19, 2017 10:13:24 PM webserver.WebServer run
INFO: Creating contexts
Jun 19, 2017 10:13:24 PM webserver.WebServer run
INFO: Starting HTTP server
Jun 19, 2017 10:13:41 PM RegisterHandler handle
FINER: ENTRY
Jun 19, 2017 10:13:49 PM DAOAuthToken addAuthToken
FINER: ENTRY
Jun 19, 2017 10:13:49 PM DAOAuthToken addAuthToken
FINER: RETURN
Jun 19, 2017 10:13:49 PM DAOPerson addPerson
FINER: ENTRY
Jun 19, 2017 10:13:49 PM DAOPerson addPerson
FINER: RETURN
Jun 19, 2017 10:13:49 PM DAOPerson addPerson
FINER: ENTRY
Jun 19, 2017 10:13:49 PM DAOPerson addPerson
FINER: RETURN
Jun 19, 2017 10:13:49 PM DAOPerson addPerson
FINER: ENTRY
Jun 19, 2017 10:13:49 PM DAOPerson addPerson
FINER: RETURN
Jun 19, 2017 10:13:49 PM DAOPerson addPerson
FINER: ENTRY
Jun 19, 2017 10:13:49 PM DAOPerson addPerson
FINER: RETURN
Jun 19, 2017 10:13:49 PM DAOPerson addPerson
FINER: ENTRY
Jun 19, 2017 10:13:49 PM DAOPerson addPerson
FINER: RETURN
Jun 19, 2017 10:13:49 PM DAOPerson addPerson
FINER: ENTRY
Jun 19, 2017 10:13:49 PM DAOPerson addPerson
FINER: RETURN
Jun 19, 2017 10:13:49 PM DAOPerson addPerson
FINER: ENTRY
Jun 19, 2017 10:13:49 PM DAOPerson addPerson
FINER: RETURN
Jun 19, 2017 10:13:49 PM DAOPerson addPerson
FINER: ENTRY
Jun 19, 2017 10:13:49 PM DAOPerson addPerson
FINER: RETURN
Jun 19, 2017 10:13:49 PM DAOPerson addPerson
FINER: ENTRY
Jun 19, 2017 10:13:49 PM DAOPerson addPerson
FINER: RETURN
Jun 19, 2017 10:13:49 PM DAOPerson addPerson
FINER: ENTRY
Jun 19, 2017 10:13:49 PM DAOPerson addPerson
FINER: RETURN
Jun 19, 2017 10:13:49 PM DAOPerson addPerson
FINER: ENTRY
Jun 19, 2017 10:13:49 PM DAOPerson addPerson
FINER: RETURN
Jun 19, 2017 10:13:49 PM DAOPerson addPerson
FINER: ENTRY
Jun 19, 2017 10:13:49 PM DAOPerson addPerson
FINER: RETURN
Jun 19, 2017 10:13:49 PM DAOPerson addPerson
FINER: ENTRY
Jun 19, 2017 10:13:49 PM DAOPerson addPerson
FINER: RETURN
Jun 19, 2017 10:13:49 PM DAOPerson addPerson
FINER: ENTRY
Jun 19, 2017 10:13:49 PM DAOPerson addPerson
FINER: RETURN
Jun 19, 2017 10:13:49 PM DAOPerson addPerson
FINER: ENTRY
Jun 19, 2017 10:13:49 PM DAOPerson addPerson
FINER: RETURN
Jun 19, 2017 10:13:49 PM DAOPerson addPerson
FINER: ENTRY
Jun 19, 2017 10:13:49 PM DAOPerson addPerson
FINER: RETURN
Jun 19, 2017 10:13:49 PM DAOPerson addPerson
FINER: ENTRY
Jun 19, 2017 10:13:49 PM DAOPerson addPerson
FINER: RETURN
Jun 19, 2017 10:13:49 PM DAOPerson addPerson
FINER: ENTRY
Jun 19, 2017 10:13:49 PM DAOPerson addPerson
FINER: RETURN
Jun 19, 2017 10:13:49 PM DAOPerson addPerson
FINER: ENTRY
Jun 19, 2017 10:13:49 PM DAOPerson addPerson
FINER: RETURN
Jun 19, 2017 10:13:49 PM DAOPerson addPerson
FINER: ENTRY
Jun 19, 2017 10:13:49 PM DAOPerson addPerson
FINER: RETURN
Jun 19, 2017 10:13:49 PM DAOPerson addPerson
FINER: ENTRY
Jun 19, 2017 10:13:49 PM DAOPerson addPerson
FINER: RETURN
Jun 19, 2017 10:13:49 PM DAOPerson addPerson
FINER: ENTRY
Jun 19, 2017 10:13:49 PM DAOPerson addPerson
FINER: RETURN
Jun 19, 2017 10:13:49 PM DAOPerson addPerson
FINER: ENTRY
Jun 19, 2017 10:13:49 PM DAOPerson addPerson
FINER: RETURN
Jun 19, 2017 10:13:49 PM DAOPerson addPerson
FINER: ENTRY
Jun 19, 2017 10:13:49 PM DAOPerson addPerson
FINER: RETURN
Jun 19, 2017 10:13:49 PM DAOPerson addPerson
FINER: ENTRY
Jun 19, 2017 10:13:49 PM DAOPerson addPerson
FINER: RETURN
Jun 19, 2017 10:13:49 PM DAOPerson addPerson
FINER: ENTRY
Jun 19, 2017 10:13:49 PM DAOPerson addPerson
FINER: RETURN
Jun 19, 2017 10:13:49 PM DAOPerson addPerson
FINER: ENTRY
Jun 19, 2017 10:13:49 PM DAOPerson addPerson
FINER: RETURN
Jun 19, 2017 10:13:49 PM DAOPerson addPerson
FINER: ENTRY
Jun 19, 2017 10:13:49 PM DAOPerson addPerson
FINER: RETURN
Jun 19, 2017 10:13:49 PM DAOPerson addPerson
FINER: ENTRY
Jun 19, 2017 10:13:49 PM DAOPerson addPerson
FINER: RETURN
Jun 19, 2017 10:13:49 PM DAOPerson addPerson
FINER: ENTRY
Jun 19, 2017 10:13:49 PM DAOPerson addPerson
FINER: RETURN
Jun 19, 2017 10:13:49 PM DAOPerson addPerson
FINER: ENTRY
Jun 19, 2017 10:13:49 PM DAOPerson addPerson
FINER: RETURN
Jun 19, 2017 10:13:49 PM RegisterHandler handle
FINER: RETURN
Jun 19, 2017 10:14:12 PM RegisterHandler handle
FINER: ENTRY
Jun 19, 2017 10:14:12 PM daos.DAOUser addUser
WARNING: SQLException when adding user. Message: [SQLITE_CONSTRAINT]  Abort due to constraint violation (column username is not unique)
Jun 19, 2017 10:14:12 PM DAOUser addUser
FINER: RETURN
Jun 19, 2017 10:14:12 PM RegisterHandler handle
FINER: RETURN
Jun 19, 2017 10:15:19 PM RegisterHandler handle
FINER: ENTRY
Jun 19, 2017 10:15:19 PM daos.DAOUser addUser
WARNING: SQLException when adding user. Message: [SQLITE_CONSTRAINT]  Abort due to constraint violation (column username is not unique)
Jun 19, 2017 10:15:19 PM DAOUser addUser
FINER: RETURN
Jun 19, 2017 10:15:19 PM RegisterHandler handle
FINER: RETURN
Jun 19, 2017 10:15:57 PM RegisterHandler handle
FINER: ENTRY
Jun 19, 2017 10:15:57 PM daos.DAOUser addUser
WARNING: SQLException when adding user. Message: [SQLITE_CONSTRAINT]  Abort due to constraint violation (column username is not unique)
Jun 19, 2017 10:15:57 PM DAOUser addUser
FINER: RETURN
Jun 19, 2017 10:15:57 PM RegisterHandler handle
FINER: RETURN
Jun 19, 2017 10:18:33 PM RegisterHandler handle
FINER: ENTRY
Jun 19, 2017 10:18:33 PM daos.DAOUser addUser
WARNING: SQLException when adding user. Message: [SQLITE_CONSTRAINT]  Abort due to constraint violation (column username is not unique)
Jun 19, 2017 10:18:33 PM DAOUser addUser
FINER: RETURN
Jun 19, 2017 10:18:33 PM RegisterHandler handle
FINER: RETURN
Jun 19, 2017 10:18:44 PM LoginHandler handle
FINER: ENTRY
Jun 19, 2017 10:18:44 PM DAOAuthToken addAuthToken
FINER: ENTRY
Jun 19, 2017 10:18:44 PM DAOAuthToken addAuthToken
FINER: RETURN
Jun 19, 2017 10:18:44 PM LoginHandler handle
FINER: RETURN
Jun 19, 2017 10:18:44 PM RegisterHandler handle
FINER: ENTRY
Jun 19, 2017 10:18:44 PM daos.DAOUser addUser
WARNING: SQLException when adding user. Message: [SQLITE_CONSTRAINT]  Abort due to constraint violation (column username is not unique)
Jun 19, 2017 10:18:44 PM DAOUser addUser
FINER: RETURN
Jun 19, 2017 10:18:44 PM RegisterHandler handle
FINER: RETURN
Jun 19, 2017 10:23:07 PM LoginHandler handle
FINER: ENTRY
Jun 19, 2017 10:23:07 PM DAOAuthToken addAuthToken
FINER: ENTRY
Jun 19, 2017 10:23:07 PM DAOAuthToken addAuthToken
FINER: RETURN
Jun 19, 2017 10:23:07 PM LoginHandler handle
FINER: RETURN
Jun 19, 2017 10:23:07 PM RegisterHandler handle
FINER: ENTRY
Jun 19, 2017 10:23:07 PM daos.DAOUser addUser
WARNING: SQLException when adding user. Message: [SQLITE_CONSTRAINT]  Abort due to constraint violation (column username is not unique)
Jun 19, 2017 10:23:07 PM DAOUser addUser
FINER: RETURN
Jun 19, 2017 10:23:07 PM RegisterHandler handle
FINER: RETURN
Jun 19, 2017 10:23:07 PM LoginHandler handle
FINER: ENTRY
Jun 19, 2017 10:23:07 PM DAOAuthToken addAuthToken
FINER: ENTRY
Jun 19, 2017 10:23:07 PM DAOAuthToken addAuthToken
FINER: RETURN
Jun 19, 2017 10:23:08 PM LoginHandler handle
FINER: RETURN
Jun 19, 2017 10:23:08 PM PersonHandler handle
FINER: ENTRY
Jun 19, 2017 10:23:08 PM DAOAuthToken getAuthToken
FINER: ENTRY
Jun 19, 2017 10:23:08 PM DAOAuthToken getAuthToken
FINER: RETURN
Jun 19, 2017 10:23:08 PM DAOPerson getPersonsByUserName
FINER: ENTRY
Jun 19, 2017 10:23:08 PM DAOPerson getPersonsByUserName
FINER: RETURN
Jun 19, 2017 10:23:08 PM PersonHandler handle
FINER: RETURN
Jun 19, 2017 10:24:29 PM LoginHandler handle
FINER: ENTRY
Jun 19, 2017 10:24:29 PM DAOAuthToken addAuthToken
FINER: ENTRY
Jun 19, 2017 10:24:29 PM DAOAuthToken addAuthToken
FINER: RETURN
Jun 19, 2017 10:24:29 PM LoginHandler handle
FINER: RETURN
Jun 19, 2017 10:24:29 PM RegisterHandler handle
FINER: ENTRY
Jun 19, 2017 10:24:29 PM daos.DAOUser addUser
WARNING: SQLException when adding user. Message: [SQLITE_CONSTRAINT]  Abort due to constraint violation (column username is not unique)
Jun 19, 2017 10:24:29 PM DAOUser addUser
FINER: RETURN
Jun 19, 2017 10:24:29 PM RegisterHandler handle
FINER: RETURN
Jun 19, 2017 10:24:29 PM LoginHandler handle
FINER: ENTRY
Jun 19, 2017 10:24:29 PM DAOAuthToken addAuthToken
FINER: ENTRY
Jun 19, 2017 10:24:29 PM DAOAuthToken addAuthToken
FINER: RETURN
Jun 19, 2017 10:24:29 PM LoginHandler handle
FINER: RETURN
Jun 19, 2017 10:24:29 PM PersonHandler handle
FINER: ENTRY
Jun 19, 2017 10:24:29 PM DAOAuthToken getAuthToken
FINER: ENTRY
Jun 19, 2017 10:24:29 PM DAOAuthToken getAuthToken
FINER: RETURN
Jun 19, 2017 10:24:29 PM DAOPerson getPersonsByUserName
FINER: ENTRY
Jun 19, 2017 10:24:29 PM DAOPerson getPersonsByUserName
FINER: RETURN
Jun 19, 2017 10:24:29 PM PersonHandler handle
FINER: RETURN
Jun 19, 2017 10:25:52 PM EventHandler handle
FINER: ENTRY
Jun 19, 2017 10:25:52 PM EventHandler handle
FINER: RETURN
Jun 19, 2017 10:26:15 PM EventHandler handle
FINER: ENTRY
Jun 19, 2017 10:26:15 PM EventHandler handle
FINER: RETURN
Jun 19, 2017 10:28:52 PM EventHandler handle
FINER: ENTRY
Jun 19, 2017 10:28:52 PM DAOAuthToken getAuthToken
FINER: ENTRY
Jun 19, 2017 10:28:52 PM DAOAuthToken getAuthToken
FINER: RETURN
Jun 19, 2017 10:28:52 PM EventHandler handle
FINER: RETURN
Jun 19, 2017 10:29:07 PM LoginHandler handle
FINER: ENTRY
Jun 19, 2017 10:29:07 PM DAOAuthToken addAuthToken
FINER: ENTRY
Jun 19, 2017 10:29:07 PM DAOAuthToken addAuthToken
FINER: RETURN
Jun 19, 2017 10:29:07 PM LoginHandler handle
FINER: RETURN
Jun 19, 2017 10:29:07 PM RegisterHandler handle
FINER: ENTRY
Jun 19, 2017 10:29:07 PM daos.DAOUser addUser
WARNING: SQLException when adding user. Message: [SQLITE_CONSTRAINT]  Abort due to constraint violation (column username is not unique)
Jun 19, 2017 10:29:07 PM DAOUser addUser
FINER: RETURN
Jun 19, 2017 10:29:07 PM RegisterHandler handle
FINER: RETURN
Jun 19, 2017 10:29:07 PM LoginHandler handle
FINER: ENTRY
Jun 19, 2017 10:29:07 PM DAOAuthToken addAuthToken
FINER: ENTRY
Jun 19, 2017 10:29:07 PM DAOAuthToken addAuthToken
FINER: RETURN
Jun 19, 2017 10:29:07 PM LoginHandler handle
FINER: RETURN
Jun 19, 2017 10:29:07 PM PersonHandler handle
FINER: ENTRY
Jun 19, 2017 10:29:07 PM DAOAuthToken getAuthToken
FINER: ENTRY
Jun 19, 2017 10:29:07 PM DAOAuthToken getAuthToken
FINER: RETURN
Jun 19, 2017 10:29:07 PM DAOPerson getPersonsByUserName
FINER: ENTRY
Jun 19, 2017 10:29:07 PM DAOPerson getPersonsByUserName
FINER: RETURN
Jun 19, 2017 10:29:07 PM PersonHandler handle
FINER: RETURN
Jun 19, 2017 10:30:02 PM LoginHandler handle
FINER: ENTRY
Jun 19, 2017 10:30:02 PM DAOAuthToken addAuthToken
FINER: ENTRY
Jun 19, 2017 10:30:02 PM DAOAuthToken addAuthToken
FINER: RETURN
Jun 19, 2017 10:30:02 PM LoginHandler handle
FINER: RETURN
Jun 19, 2017 10:30:02 PM EventHandler handle
FINER: ENTRY
Jun 19, 2017 10:30:02 PM DAOAuthToken getAuthToken
FINER: ENTRY
Jun 19, 2017 10:30:02 PM DAOAuthToken getAuthToken
FINER: RETURN
Jun 19, 2017 10:30:02 PM DAOEvent getEventsByPersId
FINER: ENTRY
Jun 19, 2017 10:30:02 PM DAOEvent getEventsByPersId
FINER: RETURN
Jun 19, 2017 10:30:02 PM EventHandler handle
FINER: RETURN
Jun 19, 2017 10:30:42 PM LoginHandler handle
FINER: ENTRY
Jun 19, 2017 10:30:42 PM DAOAuthToken addAuthToken
FINER: ENTRY
Jun 19, 2017 10:30:42 PM DAOAuthToken addAuthToken
FINER: RETURN
Jun 19, 2017 10:30:42 PM LoginHandler handle
FINER: RETURN
Jun 19, 2017 10:30:42 PM RegisterHandler handle
FINER: ENTRY
Jun 19, 2017 10:30:42 PM daos.DAOUser addUser
WARNING: SQLException when adding user. Message: [SQLITE_CONSTRAINT]  Abort due to constraint violation (column username is not unique)
Jun 19, 2017 10:30:42 PM DAOUser addUser
FINER: RETURN
Jun 19, 2017 10:30:42 PM RegisterHandler handle
FINER: RETURN
Jun 19, 2017 10:30:42 PM LoginHandler handle
FINER: ENTRY
Jun 19, 2017 10:30:42 PM DAOAuthToken addAuthToken
FINER: ENTRY
Jun 19, 2017 10:30:42 PM DAOAuthToken addAuthToken
FINER: RETURN
Jun 19, 2017 10:30:42 PM LoginHandler handle
FINER: RETURN
Jun 19, 2017 10:30:42 PM PersonHandler handle
FINER: ENTRY
Jun 19, 2017 10:30:42 PM DAOAuthToken getAuthToken
FINER: ENTRY
Jun 19, 2017 10:30:42 PM DAOAuthToken getAuthToken
FINER: RETURN
Jun 19, 2017 10:30:42 PM DAOPerson getPersonsByUserName
FINER: ENTRY
Jun 19, 2017 10:30:42 PM DAOPerson getPersonsByUserName
FINER: RETURN
Jun 19, 2017 10:30:42 PM PersonHandler handle
FINER: RETURN
Jun 19, 2017 10:30:48 PM LoginHandler handle
FINER: ENTRY
Jun 19, 2017 10:30:48 PM DAOAuthToken addAuthToken
FINER: ENTRY
Jun 19, 2017 10:30:48 PM DAOAuthToken addAuthToken
FINER: RETURN
Jun 19, 2017 10:30:48 PM LoginHandler handle
FINER: RETURN
Jun 19, 2017 10:30:48 PM EventHandler handle
FINER: ENTRY
Jun 19, 2017 10:30:48 PM DAOAuthToken getAuthToken
FINER: ENTRY
Jun 19, 2017 10:30:48 PM DAOAuthToken getAuthToken
FINER: RETURN
Jun 19, 2017 10:30:48 PM DAOEvent getEventsByPersId
FINER: ENTRY
Jun 19, 2017 10:30:48 PM DAOEvent getEventsByPersId
FINER: RETURN
Jun 19, 2017 10:30:48 PM EventHandler handle
FINER: RETURN
Jun 19, 2017 10:30:48 PM LoginHandler handle
FINER: ENTRY
Jun 19, 2017 10:30:48 PM DAOAuthToken addAuthToken
FINER: ENTRY
Jun 19, 2017 10:30:48 PM DAOAuthToken addAuthToken
FINER: RETURN
Jun 19, 2017 10:30:48 PM LoginHandler handle
FINER: RETURN
Jun 19, 2017 10:30:48 PM RegisterHandler handle
FINER: ENTRY
Jun 19, 2017 10:30:48 PM daos.DAOUser addUser
WARNING: SQLException when adding user. Message: [SQLITE_CONSTRAINT]  Abort due to constraint violation (column username is not unique)
Jun 19, 2017 10:30:48 PM DAOUser addUser
FINER: RETURN
Jun 19, 2017 10:30:48 PM RegisterHandler handle
FINER: RETURN
Jun 19, 2017 10:30:48 PM LoginHandler handle
FINER: ENTRY
Jun 19, 2017 10:30:48 PM DAOAuthToken addAuthToken
FINER: ENTRY
Jun 19, 2017 10:30:48 PM DAOAuthToken addAuthToken
FINER: RETURN
Jun 19, 2017 10:30:48 PM LoginHandler handle
FINER: RETURN
Jun 19, 2017 10:30:48 PM PersonHandler handle
FINER: ENTRY
Jun 19, 2017 10:30:48 PM DAOAuthToken getAuthToken
FINER: ENTRY
Jun 19, 2017 10:30:48 PM DAOAuthToken getAuthToken
FINER: RETURN
Jun 19, 2017 10:30:48 PM DAOPerson getPersonsByUserName
FINER: ENTRY
Jun 19, 2017 10:30:48 PM DAOPerson getPersonsByUserName
FINER: RETURN
Jun 19, 2017 10:30:48 PM PersonHandler handle
FINER: RETURN
Jun 19, 2017 10:31:01 PM LoginHandler handle
FINER: ENTRY
Jun 19, 2017 10:31:01 PM DAOAuthToken addAuthToken
FINER: ENTRY
Jun 19, 2017 10:31:01 PM DAOAuthToken addAuthToken
FINER: RETURN
Jun 19, 2017 10:31:01 PM LoginHandler handle
FINER: RETURN
Jun 19, 2017 10:31:01 PM EventHandler handle
FINER: ENTRY
Jun 19, 2017 10:31:01 PM DAOAuthToken getAuthToken
FINER: ENTRY
Jun 19, 2017 10:31:01 PM DAOAuthToken getAuthToken
FINER: RETURN
Jun 19, 2017 10:31:01 PM DAOEvent getEventsByPersId
FINER: ENTRY
Jun 19, 2017 10:31:01 PM DAOEvent getEventsByPersId
FINER: RETURN
Jun 19, 2017 10:31:01 PM EventHandler handle
FINER: RETURN
Jun 19, 2017 10:31:01 PM LoginHandler handle
FINER: ENTRY
Jun 19, 2017 10:31:01 PM DAOAuthToken addAuthToken
FINER: ENTRY
Jun 19, 2017 10:31:01 PM DAOAuthToken addAuthToken
FINER: RETURN
Jun 19, 2017 10:31:01 PM LoginHandler handle
FINER: RETURN
Jun 19, 2017 10:31:01 PM RegisterHandler handle
FINER: ENTRY
Jun 19, 2017 10:31:01 PM daos.DAOUser addUser
WARNING: SQLException when adding user. Message: [SQLITE_CONSTRAINT]  Abort due to constraint violation (column username is not unique)
Jun 19, 2017 10:31:01 PM DAOUser addUser
FINER: RETURN
Jun 19, 2017 10:31:01 PM RegisterHandler handle
FINER: RETURN
Jun 19, 2017 10:31:01 PM LoginHandler handle
FINER: ENTRY
Jun 19, 2017 10:31:01 PM DAOAuthToken addAuthToken
FINER: ENTRY
Jun 19, 2017 10:31:01 PM DAOAuthToken addAuthToken
FINER: RETURN
Jun 19, 2017 10:31:01 PM LoginHandler handle
FINER: RETURN
Jun 19, 2017 10:31:01 PM PersonHandler handle
FINER: ENTRY
Jun 19, 2017 10:31:01 PM DAOAuthToken getAuthToken
FINER: ENTRY
Jun 19, 2017 10:31:01 PM DAOAuthToken getAuthToken
FINER: RETURN
Jun 19, 2017 10:31:01 PM DAOPerson getPersonsByUserName
FINER: ENTRY
Jun 19, 2017 10:31:01 PM DAOPerson getPersonsByUserName
FINER: RETURN
Jun 19, 2017 10:31:01 PM PersonHandler handle
>>>>>>> 1b25358f25afd51c78c5a939bdf153b19b00c9db
FINER: RETURN
